^C:\USERS\ADMIN\SOURCE\REPOS\SANACSHARP01\LAB18\X64\DEBUG\LAB18.OBJ
C:\USERS\ADMIN\SOURCE\REPOS\SANACSHARP01\LAB18\X64\DEBUG\LAB18.EXE
C:\USERS\ADMIN\SOURCE\REPOS\SANACSHARP01\LAB18\X64\DEBUG\LAB18.ILK
C:\USERS\ADMIN\SOURCE\REPOS\SANACSHARP01\LAB18\X64\DEBUG\LAB18.PDB
